{
	"info": {
		"_postman_id": "acddb83c-8d44-4955-b13f-c53d43cf0a44",
		"name": "piveau",
		"schema": "https://schema.getpostman.com/json/collection/v2.0.0/collection.json"
	},
	"item": [
		{
			"name": "Get list of catalogues",
			"request": {
				"auth": {
					"type": "apikey",
					"apikey": {
						"key": "X-API-Key",
						"value": "yourRepoApiKey",
						"in": "header"
					}
				},
				"method": "GET",
				"header": [],
				"url": "http://localhost:8081/catalogues"
			},
			"response": []
		},
		{
			"name": "Get catalogue",
			"request": {
				"auth": {
					"type": "apikey",
					"apikey": {
						"key": "X-API-Key",
						"value": "yourRepoApiKey",
						"in": "header"
					}
				},
				"method": "GET",
				"header": [],
				"url": "http://localhost:8081/catalogues/govdata"
			},
			"response": []
		},
		{
			"name": "Get list of dataset",
			"request": {
				"auth": {
					"type": "apikey",
					"apikey": {
						"key": "X-API-Key",
						"value": "yourRepoApiKey",
						"in": "header"
					}
				},
				"method": "GET",
				"header": [],
				"url": "http://localhost:8081/catalogues/govdata/datasets"
			},
			"response": []
		},
		{
			"name": "Get headers only for the list of catalogues",
			"request": {
				"auth": {
					"type": "apikey",
					"apikey": {
						"key": "X-API-Key",
						"value": "yourRepoApiKey",
						"in": "header"
					}
				},
				"method": "HEAD",
				"header": [],
				"url": "http://localhost:8081/catalogues"
			},
			"response": []
		},
		{
			"name": "Headers only for \"Get catalogue",
			"request": {
				"auth": {
					"type": "apikey",
					"apikey": {
						"key": "X-API-Key",
						"value": "yourRepoApiKey",
						"in": "header"
					}
				},
				"method": "HEAD",
				"header": [],
				"url": "http://localhost:8081/catalogues/govdata"
			},
			"response": []
		},
		{
			"name": "Create or update catalog",
			"protocolProfileBehavior": {
				"disabledSystemHeaders": {
					"content-type": true
				}
			},
			"request": {
				"auth": {
					"type": "apikey",
					"apikey": {
						"key": "X-API-Key",
						"value": "yourRepoApiKey",
						"in": "header"
					}
				},
				"method": "PUT",
				"header": [
					{
						"key": "Content-Type",
						"value": "text/turtle",
						"type": "text"
					}
				],
				"body": {
					"mode": "raw",
					"raw": "@prefix dct: <http://purl.org/dc/terms/> .\n@prefix dcat: <http://www.w3.org/ns/dcat#> .\n\n<https://example.io/id/catalogue/example-catalog>\n    a dcat:Catalog ;\n    dct:type \"dcat-ap\";\n    dct:title \"Example Catalog\"@en ;\n    dct:description \"This is an example Catalog\"@en ;\n    dct:language  <http://publications.europa.eu/resource/authority/language/ENG> ;\n"
				},
				"url": "http://localhost:8081/catalogues/test"
			},
			"response": []
		},
		{
			"name": "Delete catalog",
			"request": {
				"auth": {
					"type": "apikey",
					"apikey": {
						"key": "X-API-Key",
						"value": "yourRepoApiKey",
						"in": "header"
					}
				},
				"method": "DELETE",
				"header": [],
				"url": "http://localhost:8081/catalogues/govdata"
			},
			"response": []
		}
	],
	"auth": {
		"type": "basic",
		"basic": {}
	},
	"event": [
		{
			"listen": "prerequest",
			"script": {
				"type": "text/javascript",
				"exec": [
					""
				]
			}
		},
		{
			"listen": "test",
			"script": {
				"type": "text/javascript",
				"exec": [
					""
				]
			}
		}
	]
}